{
  "version": "v2.0",
  "label": "AOI for Amatrice EQ 2016",
  "location": {
    "type": "polygon",
    "coordinates": [
      [
        [ 13.09555802638026, 42.94462615313904 ],
        [ 12.96677896069128, 42.85568283408205 ],
        [ 12.91609247228248, 42.66167722746357 ],
        [ 13.06647156061726, 42.58244904001641 ],
        [ 13.27070489402731, 42.523750049422 ],
        [ 13.53502808531747, 42.60186221349596 ],
        [ 13.5678894171544, 42.8369518902691 ],
        [ 13.46713192903729, 42.9568090923035 ],
        [ 13.09555802638026, 42.94462615313904 ]

      ]
    ]
  }
}
