XXXXXXXX

Epicenter:  XXXXX  XXXXX
MW 4.9

USGS/WPHASE CENTROID MOMENT TENSOR
XXXXXXXXXXXX
Centroid:   -19.98  -66.86
Depth  240500.0         No. of sta:XXX
Moment Tensor;   Scale XXXXX
Mrr= XXX       Mtt=XXXX
Mpp=XXXX       Mrt=XXXX
Mrp=XXXX       Mtp=XXXX
Principal axes:
T  Val=  XXXX  Plg=XX  Azm=XXX
N     =  XXXX      XX      XXX
P     =  XXXX      XX      XXX

Best Double Couple:Mo=3.186*10**16
NP1:Strike=245 Dip=26 Slip=-39     
NP2:       11     74      -39     
        
