{
  "version": "v2.0", 
  "location": {
    "type": "polygon", 
    "coordinates": [
      [
        [
          87.0, 
          29.0
        ], 
        [
          87.0, 
          26.0
        ], 
        [
          83.0, 
          26.0
        ], 
        [
          83.0, 
          29.0
        ], 
        [
          87.0, 
          29.0
        ]
      ]
    ]
  }
}