{
  "version": "v2.0", 
  "location": {
    "type": "polygon", 
    "coordinates": [
      [
        [
          -160.5, 
          56
        ], 
        [
          -160.5, 
          54.5
        ], 
        [
          -163.5, 
          54.5
        ], 
        [
          -163.5, 
          56
        ], 
        [
          -160.5, 
          56
        ]
      ]
    ]
  }
}