{
  "datasets": [
    { 
      "ipath": "ariamh::data/area_of_interest",
      "version": "v1.0",
      "level": "l0",
      "type": "area_of_interest",
      "id_template": "${id}",
      "match_pattern": "/(?P<id>AOI_.+)$",
      "alt_match_pattern": null,
      "extractor": null,
      "publish": {
        "location": "davs://pucops:puc_0ps@aria-dav.jpl.nasa.gov/repository/products/area_of_interest/${version}/${id}",
        "urls": [
          "https://aria-dav.jpl.nasa.gov/repository/products/area_of_interest/${version}/${id}"
        ]
      },
      "browse": {
        "location": "davs://pucops:puc_0ps@aria-dav.jpl.nasa.gov/browse/area_of_interest/${version}/${id}",
        "urls": [
          "http://aria-dav.jpl.nasa.gov/browse/area_of_interest/${version}/${id}"
        ]
      }
    }
  ]
}
