{
  "version": "v1.0.1", 
  "location": {
    "type": "polygon", 
    "coordinates": [
      [
            [ -113.08502197265625, 37.87702138607635 ],
            [ -113.02459716796875, 37.859675659210005 ],
            [ -112.98614501953125, 37.92686760148135 ],
            [ -112.9229736328125, 37.920367835943516 ],
            [ -112.82135009765625, 38.024295124443995 ],
            [ -112.73895263671874, 38.08268954483802 ],
            [ -112.68951416015625, 38.08485140639173 ],
            [ -112.664794921875, 38.0870132040227 ],
            [ -112.64007568359375, 38.06322991452768 ],
            [ -112.68951416015625, 37.996162679728116 ],
            [ -112.7581787109375, 37.87485339352928 ],
            [ -112.81585693359375, 37.8271414168374 ],
            [ -112.8350830078125, 37.83148014503288 ],
            [ -112.906494140625, 37.80544394934271 ],
            [ -112.95867919921875, 37.779398571318765 ],
            [ -113.00537109375, 37.75551557687061 ],
            [ -113.0438232421875, 37.66208079655377 ],
            [ -113.09600830078125, 37.62945956107554 ],
            [ -113.10699462890625, 37.58594229860422 ],
            [ -113.17840576171875, 37.53804390907164 ],
            [ -113.2470703125, 37.54457732085582 ],
            [ -113.25256347656249, 37.60335225883687 ],
            [ -113.28277587890625, 37.63163475580643 ],
            [ -113.2745361328125, 37.66425503616459 ],
            [ -113.203125, 37.70772645289049 ],
            [ -113.19488525390625, 37.738141282210385 ],
            [ -113.12896728515624, 37.794592824285104 ],
            [ -113.10699462890625, 37.8553385894982 ],
            [ -113.08502197265625, 37.87702138607635 ]
      ]
    ]
  }
}
