{
  "version": "v2.0", 
  "location": {
    "type": "polygon", 
    "coordinates": [
      [
        [
          -122.0316539507276, 
          38.35005090880597
        ], 
        [
          -122.2935444857646, 
          38.24886784653979
        ], 
        [
          -122.4706069063067, 
          38.21163629582126
        ], 
        [
          -122.2873664129694, 
          37.99131776081984
        ], 
        [
          -121.7595525591866, 
          37.98475889832909
        ], 
        [
          -121.9109433557479, 
          38.32550405696621
        ], 
        [
          -122.0316539507276, 
          38.35005090880597
        ]
      ]
    ]
  }
}