{
  "version": "2.0", 
  "location": {
    "type": "polygon", 
    "coordinates": [
      [
            [ -104.8616515446305, 31.97443899994637 ],
            [ -103.6201076977997, 31.93781078520536 ],
            [ -103.6004851057554, 32.55259545848341 ],
            [ -104.8405762686223, 32.59360572876143 ],
            [ -104.8616515446305, 31.97443899994637 ]
      ]
    ]
  }
}
