{
  "version": "v2.0", 
  "location": {
    "type": "polygon", 
    "coordinates": [
      [
        [
          -91.36571654920948, 
          28.89548302803382
        ], 
        [
          -88.82411862007547, 
          28.48199081163301
        ], 
        [
          -88.11050838973067, 
          31.60944507407698
        ], 
        [
          -90.75144020254461, 
          32.01770556596144
        ], 
        [
          -91.36571654920948, 
          28.89548302803382
        ]
      ]
    ]
  }
}