{
  "priority": 8,
  "query": {
    "scihub": {
       "label": "SciHub DHUS",
       "products": ["S1_IW_SLC"],
       "priority": 8,
       "tags": ["cyclone_enawo"],
       "starttime": "event - 21 days",
       "endtime": "event + 21 days"
    },
    "asf": {
       "label": "ASF",
       "products": ["S1_IW_SLC"],
       "priority": 8,
       "tags": ["cyclone_enawo"],
       "starttime": "event - 21 days",
       "endtime": "event + 21 days"
    } 
  },
  "event": {
    "type": "cyclone",
    "time": "2017-03-12T00:00:00"
  }
}
