{
  "version": "v2.0", 
  "location": {
    "type": "polygon", 
    "coordinates": [
      [
        [
          -111, 
          34
        ], 
        [
          -111, 
          32
        ], 
        [
          -113, 
          32
        ], 
        [
          -113, 
          34
        ], 
        [
          -111, 
          34
        ]
      ]
    ]
  }
}